{
  "data": {
    "name": "",
    "description": "",
    "items": [
      {
        "_id": "690686002969ebf6f2e2bd92",
        "itemNo": "65000292",
        "__v": 0,
        "basicItemNo": "65000291",
        "basicMatl": "65000291",
        "id": "d4e285d5-4e86-48d7-ade9-0d7b551bdc31",
        "itemGroup": null,
        "itemGroupNo": null,
        "itemType": null,
        "mch2": "144",
        "mch3": "14402",
        "mch4": "1440201",
        "mch5": "144020101",
        "mch6": "144020101",
        "mediaItems": [
          {
            "id": "566ac28a-4d91-46cb-b449-83e6bbb09262",
            "type": "image",
            "mediaUrl": "https://s3-hcmc02.higiocloud.vn/images/2025/02/remove-bg-ai_1738562663055-20250203060501.png"
          },
          {
            "id": "db57ef9b-6679-4ef1-8f2e-d01a58c7c09a",
            "type": "image",
            "mediaUrl": "https://s3-hcmc02.higiocloud.vn/images/2025/02/remove-bg-ai_1738562663055-20250203060436.png"
          }
        ],
        "mediaUrl": "https://s3-hcmc02.higiocloud.vn/images/2025/02/remove-bg-ai_1738562663055-20250203060501.png",
        "name": "Trà Lài (L)",
        "optionals": [
          {
            "id": "c547e077-f833-4632-ad7f-e61b6dda761b",
            "label": "Ngọt",
            "values": [
              "Ít",
              "Nhiều",
              "Không"
            ],
            "defaultValue": "Không",
            "displayType": "Radio_Button"
          },
          {
            "id": "2c27f72c-7ac3-4c61-a8e8-cfff0a654558",
            "label": "Trà",
            "values": [
              "Ít",
              "Bình thường",
              "Nhiều"
            ],
            "defaultValue": "Bình thường",
            "displayType": "Radio_Button"
          },
          {
            "id": "4dee9eaa-d41e-4ce5-a985-38a05220fc47",
            "label": "Đá",
            "values": [
              "Ít",
              "Bình thường",
              "Nhiều",
              "Không"
            ],
            "defaultValue": "Bình thường",
            "displayType": "Radio_Button"
          }
        ],
        "price": 50000,
        "salePrice": 50000,
        "seoName": "tra-lai-l--s65000292",
        "size": "L",
        "sizes": [
          {
            "id": "67b98b0e-bb68-403a-996a-92e3424cafc2",
            "itemNo": "65000290",
            "mediaUrl": "https://s3-hcmc02.higiocloud.vn/images/2025/02/tra-lai-20250203060247.jpg",
            "name": "Trà Lài (Nóng)",
            "baseSize": false,
            "size": "H",
            "addSalePrice": 0
          },
          {
            "id": "d4e285d5-4e86-48d7-ade9-0d7b551bdc31",
            "itemNo": "65000292",
            "mediaUrl": "https://s3-hcmc02.higiocloud.vn/images/2025/02/remove-bg-ai_1738562663055-20250203060501.png",
            "name": "Trà Lài (L)",
            "baseSize": false,
            "size": "L",
            "addSalePrice": 0
          },
          {
            "id": "eaaee223-4e89-4552-9a36-ae3593200624",
            "itemNo": "65000291",
            "mediaUrl": "https://s3-hcmc02.higiocloud.vn/images/2025/02/remove-bg-ai_1738562663055-20250203060501.png",
            "name": "Trà Lài (M)",
            "baseSize": true,
            "size": "M",
            "addSalePrice": -5000
          }
        ],
        "subName": "Trà Lài (L)",
        "updatedDate": "2025-11-02T01:34:08.287Z"
      },
      {
        "_id": "690686002969ebf6f2e2bd93",
        "itemNo": "65000307",
        "__v": 0,
        "basicItemNo": "65000307",
        "basicMatl": "65000307",
        "id": "056ff5a4-9b34-49e4-9ec3-7b85c3062990",
        "itemGroup": null,
        "itemGroupNo": null,
        "itemType": null,
        "mch2": "144",
        "mch3": "14403",
        "mch4": "1440302",
        "mch5": "144030201",
        "mch6": "144030201",
        "mediaItems": [
          {
            "id": "c64623ec-5f3d-40d0-8311-bc9f715103ce",
            "type": "image",
            "mediaUrl": "https://s3-hcmc02.higiocloud.vn/images/2025/02/remove-bg-ai_1738652175268-20250204065955.png"
          }
        ],
        "mediaUrl": "https://s3-hcmc02.higiocloud.vn/images/2025/02/remove-bg-ai_1738652175268-20250204065955.png",
        "name": "Trà Sữa Nhãn Sen (M)",
        "optionals": [
          {
            "id": "c547e077-f833-4632-ad7f-e61b6dda761b",
            "label": "Ngọt",
            "values": [
              "Ít",
              "Bình thường",
              "Nhiều",
              "Không"
            ],
            "defaultValue": "Bình thường",
            "displayType": "Radio_Button"
          },
          {
            "id": "2c27f72c-7ac3-4c61-a8e8-cfff0a654558",
            "label": "Trà",
            "values": [
              "Ít",
              "Bình thường",
              "Nhiều"
            ],
            "defaultValue": "Bình thường",
            "displayType": "Radio_Button"
          },
          {
            "id": "4dee9eaa-d41e-4ce5-a985-38a05220fc47",
            "label": "Đá",
            "values": [
              "Ít",
              "Bình thường",
              "Nhiều",
              "Không"
            ],
            "defaultValue": "Bình thường",
            "displayType": "Radio_Button"
          }
        ],
        "price": 59000,
        "salePrice": 59000,
        "seoName": "tra-sua-nhan-sen-m--s65000307",
        "shortDesc": "<p><br></p>",
        "size": "M",
        "sizes": [
          {
            "id": "056ff5a4-9b34-49e4-9ec3-7b85c3062990",
            "itemNo": "65000307",
            "mediaUrl": "https://s3-hcmc02.higiocloud.vn/images/2025/02/remove-bg-ai_1738652175268-20250204065955.png",
            "name": "Trà Sữa Nhãn Sen (M)",
            "baseSize": true,
            "size": "M",
            "addSalePrice": 0
          },
          {
            "id": "7b1a9e7d-4778-4ea9-a251-0c2b2a780e02",
            "itemNo": "65000308",
            "mediaUrl": "https://s3-hcmc02.higiocloud.vn/images/2023/04/65000307-tra-sua-nhan-sen-20230413021857.png",
            "name": "Trà Sữa Nhãn Sen (L)",
            "baseSize": false,
            "size": "L",
            "addSalePrice": 1000
          }
        ],
        "subName": "Trà Sữa Nhãn Sen (M)",
        "updatedDate": "2025-11-02T01:34:08.479Z"
      },
      {
        "_id": "690686002969ebf6f2e2bd99",
        "itemNo": "65000371",
        "__v": 0,
        "basicItemNo": "65000372",
        "basicMatl": "65000372",
        "id": "84ba5766-825e-4d2f-9752-a1ba4eaa87cb",
        "itemGroup": null,
        "itemGroupNo": null,
        "itemType": null,
        "mch2": "144",
        "mch3": "14403",
        "mch4": "1440302",
        "mch5": "144030201",
        "mch6": "",
        "mediaItems": [
          {
            "id": "d094cdae-4126-4a06-9690-2cda5f2be229",
            "type": "image",
            "mediaUrl": "https://s3-hcmc02.higiocloud.vn/images/2024/10/remove-bg-ai_1729059762025-20241016062354.png"
          },
          {
            "id": "3f94dad7-ab26-42db-8ed4-ba6ed2797d46",
            "type": "image",
            "mediaUrl": "https://s3-hcmc02.higiocloud.vn/images/2024/11/remove-bg-ai_1729059762025-20241016062354-20241122071815.png"
          }
        ],
        "mediaUrl": "https://s3-hcmc02.higiocloud.vn/images/2024/10/remove-bg-ai_1729059762025-20241016062354.png",
        "name": "Trà Lài Kem Silky (M)",
        "price": 55000,
        "salePrice": 55000,
        "seoName": "tra-lai-kem-silky-m--s65000371",
        "size": "M",
        "sizes": [
          {
            "id": "3827d9ef-d9ca-4bb9-b030-faa04151993c",
            "itemNo": "65000370",
            "mediaUrl": "https://s3-hcmc02.higiocloud.vn/images/2024/10/remove-bg-ai_1729059762025-20241016062354.png",
            "name": "Trà Lài Kem Silky (H)",
            "baseSize": false,
            "size": "H",
            "addSalePrice": 4000
          },
          {
            "id": "52542c70-a56d-4dbf-b802-fe049ff805e7",
            "itemNo": "65000372",
            "mediaUrl": "https://s3-hcmc02.higiocloud.vn/images/2024/10/remove-bg-ai_1729059762025-20241016062354.png",
            "name": "Trà Lài Kem Silky (L)",
            "baseSize": true,
            "size": "L",
            "addSalePrice": 4000
          },
          {
            "id": "84ba5766-825e-4d2f-9752-a1ba4eaa87cb",
            "itemNo": "65000371",
            "mediaUrl": "https://s3-hcmc02.higiocloud.vn/images/2024/10/remove-bg-ai_1729059762025-20241016062354.png",
            "name": "Trà Lài Kem Silky (M)",
            "baseSize": false,
            "size": "M",
            "addSalePrice": 0
          }
        ],
        "subName": "Trà Lài Kem Silky (M)",
        "updatedDate": "2025-11-02T01:34:09.329Z"
      },
      {
        "_id": "690686002969ebf6f2e2bd9c",
        "itemNo": "65000313",
        "__v": 0,
        "basicItemNo": "65000313",
        "basicMatl": null,
        "id": "5bd896b2-0850-4a2e-b1df-86177c735015",
        "itemGroup": null,
        "itemGroupNo": null,
        "itemType": null,
        "mch2": "141",
        "mch3": "14101",
        "mch4": "1410101",
        "mch5": "141010101",
        "mch6": "141010101",
        "mediaItems": [
          {
            "id": "e850a9dd-74d1-4202-a13f-f6d68e4c22ea",
            "type": "image",
            "mediaUrl": "https://s3-hcmc02.higiocloud.vn/images/2024/10/remove-bg-ai_1729485493206-20241021043848.png"
          }
        ],
        "mediaUrl": "https://s3-hcmc02.higiocloud.vn/images/2024/10/remove-bg-ai_1729485493206-20241021043848.png",
        "name": "Topping thạch konjac",
        "price": 15000,
        "salePrice": 15000,
        "seoName": "topping-thach-konjac--s65000313",
        "shortDesc": "",
        "size": null,
        "sizes": [
          {
            "id": "5bd896b2-0850-4a2e-b1df-86177c735015",
            "itemNo": "65000313",
            "mediaUrl": "https://s3-hcmc02.higiocloud.vn/images/2024/10/remove-bg-ai_1729485493206-20241021043848.png",
            "name": "Topping thạch konjac",
            "baseSize": false,
            "size": null,
            "addSalePrice": 0
          }
        ],
        "subName": "Topping thạch konjac",
        "updatedDate": "2025-11-02T01:34:08.550Z"
      },
      {
        "_id": "690686002969ebf6f2e2bd9d",
        "itemNo": "65000333",
        "__v": 0,
        "basicItemNo": "65000333",
        "basicMatl": "65000333",
        "id": "4a58eb59-158e-4426-a27e-6dd18a349207",
        "itemGroup": null,
        "itemGroupNo": null,
        "itemType": null,
        "mch2": "144",
        "mch3": "14403",
        "mch4": "1440302",
        "mch5": "144030201",
        "mch6": "144030201",
        "mediaItems": [
          {
            "id": "a8e5ab85-6fe7-4800-bc0e-729432e9f6e4",
            "type": "image",
            "mediaUrl": "https://s3-hcmc02.higiocloud.vn/images/2025/02/remove-bg-ai_1738652175268-20250205020029.png"
          }
        ],
        "mediaUrl": "https://s3-hcmc02.higiocloud.vn/images/2025/02/remove-bg-ai_1738652175268-20250205020029.png",
        "name": "Trà Sữa Ô Long Quế Hoa (L)",
        "price": 55000,
        "salePrice": 55000,
        "seoName": "tra-sua-o-long-que-hoa-l--s65000333",
        "shortDesc": "",
        "size": "L",
        "sizes": [
          {
            "id": "16b606ba-7a37-457d-a1d9-80122941075a",
            "itemNo": "65000332",
            "mediaUrl": "https://s3-hcmc02.higiocloud.vn/images/2025/02/remove-bg-ai_1738652175268-20250205020029.png",
            "name": "Trà Sữa Ô Long Quế Hoa (M)",
            "baseSize": false,
            "size": "M",
            "addSalePrice": -5000
          },
          {
            "id": "4a58eb59-158e-4426-a27e-6dd18a349207",
            "itemNo": "65000333",
            "mediaUrl": "https://s3-hcmc02.higiocloud.vn/images/2025/02/remove-bg-ai_1738652175268-20250205020029.png",
            "name": "Trà Sữa Ô Long Quế Hoa (L)",
            "baseSize": true,
            "size": "L",
            "addSalePrice": 0
          }
        ],
        "subName": "Trà Sữa Ô Long Quế Hoa (L)",
        "updatedDate": "2025-11-02T01:34:08.669Z"
      },
      {
        "_id": "690686002969ebf6f2e2bda0",
        "itemNo": "65000315",
        "__v": 0,
        "basicItemNo": "65000315",
        "basicMatl": "65000315",
        "id": "f35e7df0-77f1-48b9-8b6f-1302d16ffc90",
        "itemGroup": null,
        "itemGroupNo": null,
        "itemType": null,
        "mch2": "144",
        "mch3": "14403",
        "mch4": "1440302",
        "mch5": "144030201",
        "mch6": "144030201",
        "mediaItems": [
          {
            "id": "2fef4f69-b247-41d2-8291-fbac765a08b1",
            "type": "image",
            "mediaUrl": "https://s3-hcmc02.higiocloud.vn/images/2023/06/o-long-dao-cam-tach-nen-20230607070407.png"
          }
        ],
        "mediaUrl": "https://s3-hcmc02.higiocloud.vn/images/2023/06/o-long-dao-cam-tach-nen-20230607070407.png",
        "name": "Trà Ô Long Cam Đào Thạch Konjac(M)",
        "optionals": [
          {
            "id": "c547e077-f833-4632-ad7f-e61b6dda761b",
            "label": "Ngọt",
            "values": [
              "Ít",
              "Bình thường",
              "Nhiều"
            ],
            "defaultValue": "Bình thường",
            "displayType": "Radio_Button"
          },
          {
            "id": "4dee9eaa-d41e-4ce5-a985-38a05220fc47",
            "label": "Đá",
            "values": [
              "Ít",
              "Bình thường",
              "Không"
            ],
            "defaultValue": "Bình thường",
            "displayType": "Radio_Button"
          },
          {
            "id": "2c27f72c-7ac3-4c61-a8e8-cfff0a654558",
            "label": "Trà",
            "values": [
              "Ít",
              "Bình thường",
              "Nhiều"
            ],
            "defaultValue": "Bình thường",
            "displayType": "Radio_Button"
          }
        ],
        "price": 59000,
        "salePrice": 59000,
        "seoName": "tra-o-long-cam-dao-thach-konjacm--s65000315",
        "shortDesc": "",
        "size": "M",
        "sizes": [
          {
            "id": "f31a324e-db12-4d11-9dc7-d34b176e92fa",
            "itemNo": "65000316",
            "mediaUrl": "https://s3-hcmc02.higiocloud.vn/images/2023/06/o-long-dao-cam-tach-nen-20230607070407.png",
            "name": "Trà Ô Long Cam Đào Thạch Konjac(L)",
            "baseSize": false,
            "size": "L",
            "addSalePrice": 6000
          },
          {
            "id": "f35e7df0-77f1-48b9-8b6f-1302d16ffc90",
            "itemNo": "65000315",
            "mediaUrl": "https://s3-hcmc02.higiocloud.vn/images/2023/06/o-long-dao-cam-tach-nen-20230607070407.png",
            "name": "Trà Ô Long Cam Đào Thạch Konjac(M)",
            "baseSize": true,
            "size": "M",
            "addSalePrice": 0
          }
        ],
        "subName": "Trà Ô Long Cam Đào Thạch Konjac(M)",
        "updatedDate": "2025-11-02T01:34:08.574Z"
      },
      {
        "_id": "690686002969ebf6f2e2bda1",
        "itemNo": "65000366",
        "__v": 0,
        "basicItemNo": "65000366",
        "basicMatl": "65000366",
        "id": "b1fa79fb-c29a-47f0-a85f-b16ee9df88a6",
        "itemGroup": null,
        "itemGroupNo": null,
        "itemType": null,
        "mch2": "144",
        "mch3": "14403",
        "mch4": "1440302",
        "mch5": "144030201",
        "mch6": "",
        "mediaItems": [
          {
            "id": "32512742-1e41-45be-a5e7-0999a89bfcbf",
            "type": "image",
            "mediaUrl": "https://s3-hcmc02.higiocloud.vn/images/2024/10/remove-bg-ai_1729059900124-20241016062513.png"
          }
        ],
        "mediaUrl": "https://s3-hcmc02.higiocloud.vn/images/2024/10/remove-bg-ai_1729059900124-20241016062513.png",
        "name": "Trà Ô Long Kem Silky (L)",
        "price": 59000,
        "salePrice": 59000,
        "seoName": "tra-o-long-kem-silky-l--s65000366",
        "shortDesc": "",
        "size": "L",
        "sizes": [
          {
            "id": "4e822430-0cb7-4e45-b457-a5468c0300de",
            "itemNo": "65000365",
            "mediaUrl": "https://s3-hcmc02.higiocloud.vn/images/2024/10/remove-bg-ai_1729059900124-20241016062513.png",
            "name": "Trà Ô Long Kem Silky (M)",
            "baseSize": false,
            "size": "M",
            "addSalePrice": -4000
          },
          {
            "id": "b1fa79fb-c29a-47f0-a85f-b16ee9df88a6",
            "itemNo": "65000366",
            "mediaUrl": "https://s3-hcmc02.higiocloud.vn/images/2024/10/remove-bg-ai_1729059900124-20241016062513.png",
            "name": "Trà Ô Long Kem Silky (L)",
            "baseSize": true,
            "size": "L",
            "addSalePrice": 0
          },
          {
            "id": "bffa5e9f-4f68-4132-af9c-05a4864e8505",
            "itemNo": "65000364",
            "mediaUrl": "https://s3-hcmc02.higiocloud.vn/images/2024/10/remove-bg-ai_1729059900124-20241016062513.png",
            "name": "Trà Ô Long Kem Silky (H)",
            "baseSize": false,
            "size": "H",
            "addSalePrice": 0
          }
        ],
        "subName": "Trà Ô Long Kem Silky (L)",
        "updatedDate": "2025-11-02T01:34:09.161Z"
      },
      {
        "_id": "690686002969ebf6f2e2bda2",
        "itemNo": "65000354",
        "__v": 0,
        "basicItemNo": "65000355",
        "basicMatl": "65000355",
        "id": "209b245c-13ac-4932-96ac-8cfef2725f97",
        "itemGroup": null,
        "itemGroupNo": null,
        "itemType": null,
        "mch2": "144",
        "mch3": "14403",
        "mch4": "1440302",
        "mch5": "144030201",
        "mch6": "144030201",
        "mediaItems": [
          {
            "id": "a9dc65e2-c18a-49e2-a952-09b120a23f03",
            "type": "image",
            "mediaUrl": "https://s3-hcmc02.higiocloud.vn/images/2025/02/tra-lai-mang-cau-20250205072659.png"
          },
          {
            "id": "f7924dc5-ea72-4f76-a5fa-d963d5a7d32d",
            "type": "image",
            "mediaUrl": "https://s3-hcmc02.higiocloud.vn/images/2024/01/tra-lai-mang-cau-20240105045106.png"
          }
        ],
        "mediaUrl": "https://s3-hcmc02.higiocloud.vn/images/2025/02/tra-lai-mang-cau-20250205072659.png",
        "name": "Trà Lài Mãng Cầu Thạch Dừa Sợi (M)",
        "price": 65000,
        "salePrice": 65000,
        "seoName": "tra-lai-mang-cau-thach-dua-soi-m--s65000354",
        "size": "M",
        "sizes": [
          {
            "id": "209b245c-13ac-4932-96ac-8cfef2725f97",
            "itemNo": "65000354",
            "mediaUrl": "https://s3-hcmc02.higiocloud.vn/images/2025/02/tra-lai-mang-cau-20250205072659.png",
            "name": "Trà Lài Mãng Cầu Thạch Dừa Sợi (M)",
            "baseSize": false,
            "size": "M",
            "addSalePrice": 0
          },
          {
            "id": "c6c38064-0442-42da-aac4-fd41639e5b40",
            "itemNo": "65000355",
            "mediaUrl": "https://s3-hcmc02.higiocloud.vn/images/2025/02/tra-lai-mang-cau-20250205072659.png",
            "name": "Trà Lài Mãng Cầu Thạch Dừa Sợi (L)",
            "baseSize": true,
            "size": "L",
            "addSalePrice": 4000
          }
        ],
        "subName": "Trà Lài Mãng Cầu Thạch Dừa Sợi (M)",
        "updatedDate": "2025-11-02T01:34:08.981Z"
      },
      {
        "_id": "690686002969ebf6f2e2bda8",
        "itemNo": "65000336",
        "__v": 0,
        "basicItemNo": "65000337",
        "basicMatl": "65000337",
        "id": "2931af40-4577-489d-82ae-6a529219b01b",
        "itemGroup": null,
        "itemGroupNo": null,
        "itemType": null,
        "mch2": "144",
        "mch3": "14403",
        "mch4": "1440302",
        "mch5": "144030201",
        "mch6": "144030201",
        "mediaItems": [
          {
            "id": "45768ca8-024f-403d-b1a1-61a114cc5436",
            "type": "image",
            "mediaUrl": "https://s3-hcmc02.higiocloud.vn/images/2024/01/silky-1--20240104031840.png"
          }
        ],
        "mediaUrl": "https://s3-hcmc02.higiocloud.vn/images/2024/01/silky-1--20240104031840.png",
        "name": "Trà Phúc Long Kem Silky (M)",
        "price": 55000,
        "salePrice": 55000,
        "seoName": "tra-phuc-long-kem-silky-m--s65000336",
        "size": "M",
        "sizes": [
          {
            "id": "2931af40-4577-489d-82ae-6a529219b01b",
            "itemNo": "65000336",
            "mediaUrl": "https://s3-hcmc02.higiocloud.vn/images/2024/01/silky-1--20240104031840.png",
            "name": "Trà Phúc Long Kem Silky (M)",
            "baseSize": false,
            "size": "M",
            "addSalePrice": 0
          },
          {
            "id": "6ad586b3-6e4a-4b28-8a23-369914a7662e",
            "itemNo": "65000337",
            "mediaUrl": "https://s3-hcmc02.higiocloud.vn/images/2024/01/silky-1--20240104031840.png",
            "name": "Trà Phúc Long Kem Silky (L)",
            "baseSize": true,
            "size": "L",
            "addSalePrice": 4000
          }
        ],
        "subName": "Trà Phúc Long Kem Silky (M)",
        "updatedDate": "2025-11-02T01:34:08.768Z"
      },
      {
        "_id": "690686002969ebf6f2e2bdad",
        "itemNo": "65000351",
        "__v": 0,
        "basicItemNo": "65000351",
        "basicMatl": "65000351",
        "id": "7beae513-19c4-49f4-9aec-0240a0c1287f",
        "itemGroup": null,
        "itemGroupNo": null,
        "itemType": null,
        "mch2": "143",
        "mch3": "14302",
        "mch4": "1430202",
        "mch5": "143020201",
        "mch6": "143020201",
        "mediaItems": [
          {
            "id": "197619bf-5f6f-4959-af2d-9451dd890254",
            "type": "image",
            "mediaUrl": "https://s3-hcmc02.higiocloud.vn/images/2025/02/ca-phe-sua-kem-silky-20250205072857.png"
          }
        ],
        "mediaUrl": "https://s3-hcmc02.higiocloud.vn/images/2025/02/ca-phe-sua-kem-silky-20250205072857.png",
        "name": "Cà Phê Sữa Kem Silky (L)",
        "price": 65000,
        "salePrice": 65000,
        "seoName": "ca-phe-sua-kem-silky-l--s65000351",
        "shortDesc": "",
        "size": "L",
        "sizes": [
          {
            "id": "5147ac0c-b835-4b8a-a46c-821e037d73e2",
            "itemNo": "65000350",
            "mediaUrl": "https://s3-hcmc02.higiocloud.vn/images/2024/11/remove-bg-ai_1729486510440-20241021045648-20241122070237.png",
            "name": "Cà Phê Sữa Kem Silky (M)",
            "baseSize": false,
            "size": "M",
            "addSalePrice": -15000
          },
          {
            "id": "7beae513-19c4-49f4-9aec-0240a0c1287f",
            "itemNo": "65000351",
            "mediaUrl": "https://s3-hcmc02.higiocloud.vn/images/2025/02/ca-phe-sua-kem-silky-20250205072857.png",
            "name": "Cà Phê Sữa Kem Silky (L)",
            "baseSize": true,
            "size": "L",
            "addSalePrice": 0
          }
        ],
        "subName": "Cà Phê Sữa Kem Silky (L)",
        "updatedDate": "2025-11-02T01:34:08.943Z"
      }
    ]
  },
  "paging": {
    "totalCount": 192,
    "pageSize": 10,
    "totalPages": 20,
    "pageNumber": 14,
    "pagingCounter": 131,
    "hasPrevPage": true,
    "hasNextPage": true,
    "prev": 13,
    "next": 15
  }
}