{
  "data": {
    "name": "",
    "description": "",
    "items": [
      {
        "_id": "690686002969ebf6f2e2bdf3",
        "itemNo": "65000429",
        "__v": 0,
        "basicItemNo": "65000429",
        "basicMatl": "65000429",
        "id": "de9bd17b-645a-4581-a092-dbbdf9826fc0",
        "itemGroup": null,
        "itemGroupNo": null,
        "itemType": null,
        "mch2": "144",
        "mch3": "14403",
        "mch4": "1440302",
        "mch5": "144030201",
        "mch6": "",
        "mediaItems": [
          {
            "id": "08d6191a-6b9d-408f-8f5e-7a2c060bddd1",
            "type": "image",
            "mediaUrl": "https://s3-hcmc02.higiocloud.vn/images/2025/02/remove-bg-ai_1738562663055-20250203060846.png"
          }
        ],
        "mediaUrl": "https://s3-hcmc02.higiocloud.vn/images/2025/02/remove-bg-ai_1738562663055-20250203060846.png",
        "name": "Trà Ô Long Quế Hoa (L)",
        "price": 45000,
        "salePrice": 45000,
        "seoName": "tra-o-long-que-hoa-l--s65000429",
        "shortDesc": "",
        "size": "L",
        "sizes": [
          {
            "id": "05e7993c-8c5d-40f8-8776-682b52f25759",
            "itemNo": "65000428",
            "mediaUrl": "https://s3-hcmc02.higiocloud.vn/images/2025/02/remove-bg-ai_1738562663055-20250203060846.png",
            "name": "Trà Ô Long Quế Hoa (H)",
            "baseSize": false,
            "size": "H",
            "addSalePrice": 0
          },
          {
            "id": "25e1ef98-8560-4089-86db-c00a2613fabf",
            "itemNo": "65000430",
            "mediaUrl": "https://s3-hcmc02.higiocloud.vn/images/2025/02/tra-o-long-que-hoa-20250203055746.jpg",
            "name": "Trà Ô Long Quế Hoa (M)",
            "baseSize": false,
            "size": "M",
            "addSalePrice": -5000
          },
          {
            "id": "de9bd17b-645a-4581-a092-dbbdf9826fc0",
            "itemNo": "65000429",
            "mediaUrl": "https://s3-hcmc02.higiocloud.vn/images/2025/02/remove-bg-ai_1738562663055-20250203060846.png",
            "name": "Trà Ô Long Quế Hoa (L)",
            "baseSize": true,
            "size": "L",
            "addSalePrice": 0
          }
        ],
        "subName": "Trà Ô Long Quế Hoa (L)",
        "updatedDate": "2025-11-02T01:34:10.062Z"
      },
      {
        "_id": "690686002969ebf6f2e2bdf5",
        "itemNo": "65000448",
        "__v": 0,
        "basicItemNo": "65000448",
        "basicMatl": "65000448",
        "id": "a048e2ad-d488-4075-b015-85c2d140481e",
        "itemGroup": null,
        "itemGroupNo": null,
        "itemType": null,
        "mch2": "144",
        "mch3": "14403",
        "mch4": "1440302",
        "mch5": "144030201",
        "mch6": "",
        "mediaItems": [
          {
            "id": "80a3185b-66f0-4223-bd84-b19424fc3e0c",
            "type": "image",
            "mediaUrl": "https://s3-hcmc02.higiocloud.vn/images/2025/03/nv-20250305102437.png"
          }
        ],
        "mediaUrl": "https://s3-hcmc02.higiocloud.vn/images/2025/03/nv-20250305102437.png",
        "name": "Hồng Trà Latte Nguyên Vị (L)",
        "price": 65000,
        "salePrice": 65000,
        "seoName": "hong-tra-latte-nguyen-vi-l--s65000448",
        "shortDesc": "",
        "size": "L",
        "sizes": [
          {
            "id": "0a78a5f8-17ab-4923-a2d7-6d317af0dc8c",
            "itemNo": "65000447",
            "mediaUrl": "https://s3-hcmc02.higiocloud.vn/images/2025/03/nv-20250305102437.png",
            "name": "Hồng Trà Latte Nguyên Vị (H)",
            "baseSize": false,
            "size": "M",
            "addSalePrice": 0
          },
          {
            "id": "a048e2ad-d488-4075-b015-85c2d140481e",
            "itemNo": "65000448",
            "mediaUrl": "https://s3-hcmc02.higiocloud.vn/images/2025/03/nv-20250305102437.png",
            "name": "Hồng Trà Latte Nguyên Vị (L)",
            "baseSize": true,
            "size": "L",
            "addSalePrice": 0
          }
        ],
        "subName": "Hồng Trà Latte Nguyên Vị (L)",
        "updatedDate": "2025-11-02T01:34:10.373Z"
      },
      {
        "_id": "690686002969ebf6f2e2bdf6",
        "itemNo": "65000370",
        "__v": 0,
        "basicItemNo": "65000372",
        "basicMatl": "65000372",
        "id": "3827d9ef-d9ca-4bb9-b030-faa04151993c",
        "itemGroup": null,
        "itemGroupNo": null,
        "itemType": null,
        "mch2": "144",
        "mch3": "14403",
        "mch4": "1440301",
        "mch5": "144030101",
        "mch6": "",
        "mediaItems": [
          {
            "id": "d094cdae-4126-4a06-9690-2cda5f2be229",
            "type": "image",
            "mediaUrl": "https://s3-hcmc02.higiocloud.vn/images/2024/10/remove-bg-ai_1729059762025-20241016062354.png"
          },
          {
            "id": "bc5b480d-7ab1-4912-bbd7-f58cb31eda43",
            "type": "image",
            "mediaUrl": "https://s3-hcmc02.higiocloud.vn/images/2024/11/remove-bg-ai_1729059762025-20241016062354-20241122071823.png"
          }
        ],
        "mediaUrl": "https://s3-hcmc02.higiocloud.vn/images/2024/10/remove-bg-ai_1729059762025-20241016062354.png",
        "name": "Trà Lài Kem Silky (H)",
        "price": 59000,
        "salePrice": 59000,
        "seoName": "tra-lai-kem-silky-h--s65000370",
        "size": "H",
        "sizes": [
          {
            "id": "3827d9ef-d9ca-4bb9-b030-faa04151993c",
            "itemNo": "65000370",
            "mediaUrl": "https://s3-hcmc02.higiocloud.vn/images/2024/10/remove-bg-ai_1729059762025-20241016062354.png",
            "name": "Trà Lài Kem Silky (H)",
            "baseSize": false,
            "size": "H",
            "addSalePrice": 0
          },
          {
            "id": "52542c70-a56d-4dbf-b802-fe049ff805e7",
            "itemNo": "65000372",
            "mediaUrl": "https://s3-hcmc02.higiocloud.vn/images/2024/10/remove-bg-ai_1729059762025-20241016062354.png",
            "name": "Trà Lài Kem Silky (L)",
            "baseSize": true,
            "size": "L",
            "addSalePrice": 0
          },
          {
            "id": "84ba5766-825e-4d2f-9752-a1ba4eaa87cb",
            "itemNo": "65000371",
            "mediaUrl": "https://s3-hcmc02.higiocloud.vn/images/2024/10/remove-bg-ai_1729059762025-20241016062354.png",
            "name": "Trà Lài Kem Silky (M)",
            "baseSize": false,
            "size": "M",
            "addSalePrice": -4000
          }
        ],
        "subName": "Trà Lài Kem Silky (H)",
        "updatedDate": "2025-11-02T01:34:09.297Z"
      },
      {
        "_id": "690686002969ebf6f2e2bdf7",
        "itemNo": "65000335",
        "__v": 0,
        "basicItemNo": "65000335",
        "basicMatl": "65000335",
        "id": "5243cbe8-649f-4f26-b55c-3b3002b70022",
        "itemGroup": null,
        "itemGroupNo": null,
        "itemType": null,
        "mch2": "144",
        "mch3": "14403",
        "mch4": "1440302",
        "mch5": "144030201",
        "mch6": "144030201",
        "mediaItems": [
          {
            "id": "1c4d9bd0-d80c-4320-85d3-4639486533f7",
            "type": "image",
            "mediaUrl": "https://s3-hcmc02.higiocloud.vn/images/2024/10/remove-bg-ai_1729059762025-20241021030405.png"
          }
        ],
        "mediaUrl": "https://s3-hcmc02.higiocloud.vn/images/2024/10/remove-bg-ai_1729059762025-20241021030405.png",
        "name": "Trà Ô Long Quế Hoa Kem Silky (L)",
        "price": 55000,
        "salePrice": 55000,
        "seoName": "tra-o-long-que-hoa-kem-silky-l--s65000335",
        "shortDesc": "",
        "size": "L",
        "sizes": [
          {
            "id": "48341ffb-8e5a-48f9-b6e6-73a48c876369",
            "itemNo": "65000361",
            "mediaUrl": "https://s3-hcmc02.higiocloud.vn/images/2024/10/remove-bg-ai_1729059762025-20241021030405.png",
            "name": "Trà Ô Long Quế Hoa Kem Silky (H)",
            "baseSize": false,
            "size": "H",
            "addSalePrice": 0
          },
          {
            "id": "5243cbe8-649f-4f26-b55c-3b3002b70022",
            "itemNo": "65000335",
            "mediaUrl": "https://s3-hcmc02.higiocloud.vn/images/2024/10/remove-bg-ai_1729059762025-20241021030405.png",
            "name": "Trà Ô Long Quế Hoa Kem Silky (L)",
            "baseSize": true,
            "size": "L",
            "addSalePrice": 0
          },
          {
            "id": "89a4266f-b4dc-4ed2-8655-629bd88b4f29",
            "itemNo": "65000334",
            "mediaUrl": "https://s3-hcmc02.higiocloud.vn/images/2024/10/remove-bg-ai_1729059762025-20241021030405.png",
            "name": "Trà Ô Long Quế Hoa Kem Silky (M)",
            "baseSize": false,
            "size": "M",
            "addSalePrice": -5000
          }
        ],
        "subName": "Trà Ô Long Quế Hoa Kem Silky (L)",
        "updatedDate": "2025-11-02T01:34:08.734Z"
      },
      {
        "_id": "690686002969ebf6f2e2bdf8",
        "itemNo": "65000297",
        "__v": 0,
        "basicItemNo": "65000297",
        "basicMatl": "65000297",
        "id": "8cfd0873-7a6f-424a-90f3-bb11ea73d0ce",
        "itemGroup": null,
        "itemGroupNo": null,
        "itemType": null,
        "mch2": "144",
        "mch3": "14402",
        "mch4": "1440201",
        "mch5": "144020101",
        "mch6": "144020101",
        "mediaItems": [
          {
            "id": "d8a78aad-c5c6-4aac-a368-e7ea72e86a37",
            "type": "image",
            "mediaUrl": "https://s3-hcmc02.higiocloud.vn/images/2023/04/65000094-65000102-tra-sua-phuc-long--20230406103801.png"
          }
        ],
        "mediaUrl": "https://s3-hcmc02.higiocloud.vn/images/2023/04/65000094-65000102-tra-sua-phuc-long--20230406103801.png",
        "name": "Trà Sữa Lài (M)",
        "optionals": [
          {
            "id": "c547e077-f833-4632-ad7f-e61b6dda761b",
            "label": "Ngọt",
            "values": [
              "Ít",
              "Bình thường",
              "Nhiều",
              "Không"
            ],
            "defaultValue": "Bình thường",
            "displayType": "Radio_Button"
          },
          {
            "id": "2c27f72c-7ac3-4c61-a8e8-cfff0a654558",
            "label": "Trà",
            "values": [
              "Ít",
              "Bình thường",
              "Nhiều"
            ],
            "defaultValue": "Bình thường",
            "displayType": "Radio_Button"
          },
          {
            "id": "4dee9eaa-d41e-4ce5-a985-38a05220fc47",
            "label": "Đá",
            "values": [
              "Ít",
              "Bình thường",
              "Nhiều",
              "Không"
            ],
            "defaultValue": "Bình thường",
            "displayType": "Radio_Button"
          }
        ],
        "price": 55000,
        "salePrice": 55000,
        "seoName": "tra-sua-lai-m--s65000297",
        "shortDesc": "<p><br></p>",
        "size": "M",
        "sizes": [
          {
            "id": "8cfd0873-7a6f-424a-90f3-bb11ea73d0ce",
            "itemNo": "65000297",
            "mediaUrl": "https://s3-hcmc02.higiocloud.vn/images/2023/04/65000094-65000102-tra-sua-phuc-long--20230406103801.png",
            "name": "Trà Sữa Lài (M)",
            "baseSize": true,
            "size": "M",
            "addSalePrice": 0
          },
          {
            "id": "fa368c64-27a5-4b95-8003-94a0cbd39065",
            "itemNo": "65000298",
            "mediaUrl": "https://s3-hcmc02.higiocloud.vn/images/2023/04/65000094-65000102-tra-sua-phuc-long--20230406103801.png",
            "name": "Trà Sữa Lài (L)",
            "baseSize": false,
            "size": "L",
            "addSalePrice": 4000
          }
        ],
        "subName": "Trà Sữa Lài ( M)",
        "updatedDate": "2025-11-02T01:34:08.412Z"
      },
      {
        "_id": "690686002969ebf6f2e2bdfa",
        "itemNo": "65000298",
        "__v": 0,
        "basicItemNo": "65000297",
        "basicMatl": "65000297",
        "id": "fa368c64-27a5-4b95-8003-94a0cbd39065",
        "itemGroup": null,
        "itemGroupNo": null,
        "itemType": null,
        "mch2": "144",
        "mch3": "14402",
        "mch4": "1440201",
        "mch5": "144020101",
        "mch6": "144020101",
        "mediaItems": [
          {
            "id": "d8a78aad-c5c6-4aac-a368-e7ea72e86a37",
            "type": "image",
            "mediaUrl": "https://s3-hcmc02.higiocloud.vn/images/2023/04/65000094-65000102-tra-sua-phuc-long--20230406103801.png"
          },
          {
            "id": "fb8e206f-a232-4c82-85b9-742b7f0914ca",
            "type": "image",
            "mediaUrl": "https://s3-hcmc02.higiocloud.vn/images/2023/04/65000094-65000102-tra-sua-phuc-long--20230406103910.png"
          }
        ],
        "mediaUrl": "https://s3-hcmc02.higiocloud.vn/images/2023/04/65000094-65000102-tra-sua-phuc-long--20230406103801.png",
        "name": "Trà Sữa Lài (L)",
        "optionals": [
          {
            "id": "c547e077-f833-4632-ad7f-e61b6dda761b",
            "label": "Ngọt",
            "values": [
              "Ít",
              "Bình thường",
              "Nhiều",
              "Không"
            ],
            "defaultValue": "Bình thường",
            "displayType": "Radio_Button"
          },
          {
            "id": "2c27f72c-7ac3-4c61-a8e8-cfff0a654558",
            "label": "Trà",
            "values": [
              "Ít",
              "Bình thường",
              "Nhiều"
            ],
            "defaultValue": "Bình thường",
            "displayType": "Radio_Button"
          },
          {
            "id": "4dee9eaa-d41e-4ce5-a985-38a05220fc47",
            "label": "Đá",
            "values": [
              "Ít",
              "Bình thường",
              "Nhiều",
              "Không"
            ],
            "defaultValue": "Bình thường",
            "displayType": "Radio_Button"
          }
        ],
        "price": 59000,
        "salePrice": 59000,
        "seoName": "tra-sua-lai-l--s65000298",
        "size": "L",
        "sizes": [
          {
            "id": "8cfd0873-7a6f-424a-90f3-bb11ea73d0ce",
            "itemNo": "65000297",
            "mediaUrl": "https://s3-hcmc02.higiocloud.vn/images/2023/04/65000094-65000102-tra-sua-phuc-long--20230406103801.png",
            "name": "Trà Sữa Lài (M)",
            "baseSize": true,
            "size": "M",
            "addSalePrice": -14000
          },
          {
            "id": "fa368c64-27a5-4b95-8003-94a0cbd39065",
            "itemNo": "65000298",
            "mediaUrl": "https://s3-hcmc02.higiocloud.vn/images/2023/04/65000094-65000102-tra-sua-phuc-long--20230406103801.png",
            "name": "Trà Sữa Lài (L)",
            "baseSize": false,
            "size": "L",
            "addSalePrice": 0
          }
        ],
        "subName": "Trà Sữa Lài (L)",
        "updatedDate": "2025-11-02T01:34:08.449Z"
      },
      {
        "_id": "690686002969ebf6f2e2bdfb",
        "itemNo": "65000308",
        "__v": 0,
        "basicItemNo": "65000307",
        "basicMatl": "65000307",
        "id": "7b1a9e7d-4778-4ea9-a251-0c2b2a780e02",
        "itemGroup": null,
        "itemGroupNo": null,
        "itemType": null,
        "mch2": "144",
        "mch3": "14403",
        "mch4": "1440302",
        "mch5": "144030201",
        "mch6": "144030201",
        "mediaItems": [
          {
            "id": "439fd97f-36d4-436c-94c3-d643ee9b3a8f",
            "type": "image",
            "mediaUrl": "https://s3-hcmc02.higiocloud.vn/images/2023/04/65000307-tra-sua-nhan-sen-20230413021857.png"
          },
          {
            "id": "c64623ec-5f3d-40d0-8311-bc9f715103ce",
            "type": "image",
            "mediaUrl": "https://s3-hcmc02.higiocloud.vn/images/2025/02/remove-bg-ai_1738652175268-20250204065955.png"
          }
        ],
        "mediaUrl": "https://s3-hcmc02.higiocloud.vn/images/2023/04/65000307-tra-sua-nhan-sen-20230413021857.png",
        "name": "Trà Sữa Nhãn Sen (L)",
        "optionals": [
          {
            "id": "c547e077-f833-4632-ad7f-e61b6dda761b",
            "label": "Ngọt",
            "values": [
              "Ít",
              "Bình thường",
              "Nhiều",
              "Không"
            ],
            "defaultValue": "Bình thường",
            "displayType": "Radio_Button"
          },
          {
            "id": "2c27f72c-7ac3-4c61-a8e8-cfff0a654558",
            "label": "Trà",
            "values": [
              "Ít",
              "Bình thường",
              "Nhiều"
            ],
            "defaultValue": "Bình thường",
            "displayType": "Radio_Button"
          },
          {
            "id": "4dee9eaa-d41e-4ce5-a985-38a05220fc47",
            "label": "Đá",
            "values": [
              "Ít",
              "Bình thường",
              "Nhiều",
              "Không"
            ],
            "defaultValue": "Bình thường",
            "displayType": "Radio_Button"
          }
        ],
        "price": 65000,
        "salePrice": 65000,
        "seoName": "tra-sua-nhan-sen-l--s65000308",
        "size": "L",
        "sizes": [
          {
            "id": "056ff5a4-9b34-49e4-9ec3-7b85c3062990",
            "itemNo": "65000307",
            "mediaUrl": "https://s3-hcmc02.higiocloud.vn/images/2025/02/remove-bg-ai_1738652175268-20250204065955.png",
            "name": "Trà Sữa Nhãn Sen (M)",
            "baseSize": true,
            "size": "M",
            "addSalePrice": -10000
          },
          {
            "id": "7b1a9e7d-4778-4ea9-a251-0c2b2a780e02",
            "itemNo": "65000308",
            "mediaUrl": "https://s3-hcmc02.higiocloud.vn/images/2023/04/65000307-tra-sua-nhan-sen-20230413021857.png",
            "name": "Trà Sữa Nhãn Sen (L)",
            "baseSize": false,
            "size": "L",
            "addSalePrice": 0
          }
        ],
        "subName": "Trà Sữa Nhãn Sen (L)",
        "updatedDate": "2025-11-02T01:34:08.515Z"
      },
      {
        "_id": "690686002969ebf6f2e2bdfc",
        "itemNo": "65000344",
        "__v": 0,
        "basicItemNo": "65000344",
        "basicMatl": "65000344",
        "id": "5e6546e4-2606-442b-ac16-8811ff7aa042",
        "itemGroup": null,
        "itemGroupNo": null,
        "itemType": null,
        "mch2": "144",
        "mch3": "14403",
        "mch4": "1440302",
        "mch5": "144030201",
        "mch6": "144030201",
        "mediaItems": [
          {
            "id": "3bcecda1-5672-4ab7-a581-84638de2855a",
            "type": "image",
            "mediaUrl": "https://s3-hcmc02.higiocloud.vn/images/2025/02/tra-lai-phuc-bon-tu-thach-dua-soi-20250205072732.png"
          }
        ],
        "mediaUrl": "https://s3-hcmc02.higiocloud.vn/images/2025/02/tra-lai-phuc-bon-tu-thach-dua-soi-20250205072732.png",
        "name": "Trà Lài Phúc Bồn Tử Thạch Dừa Sợi (L)",
        "price": 69000,
        "salePrice": 69000,
        "seoName": "tra-lai-phuc-bon-tu-thach-dua-soi-l--s65000344",
        "shortDesc": "<p><br></p>",
        "size": "L",
        "sizes": [
          {
            "id": "5e6546e4-2606-442b-ac16-8811ff7aa042",
            "itemNo": "65000344",
            "mediaUrl": "https://s3-hcmc02.higiocloud.vn/images/2025/02/tra-lai-phuc-bon-tu-thach-dua-soi-20250205072732.png",
            "name": "Trà Lài Phúc Bồn Tử Thạch Dừa Sợi (L)",
            "baseSize": true,
            "size": "L",
            "addSalePrice": 0
          },
          {
            "id": "78c51e0b-23d7-4a1a-be22-9ca1fd3e0306",
            "itemNo": "65000343",
            "mediaUrl": "https://s3-hcmc02.higiocloud.vn/images/2025/02/tra-lai-phuc-bon-tu-thach-dua-soi-20250205072732.png",
            "name": "Trà Lài Phúc Bồn Tử Thạch Dừa Sợi (M)",
            "baseSize": false,
            "size": "M",
            "addSalePrice": -4000
          }
        ],
        "subName": "Trà Lài Phúc Bồn Tử Thạch Dừa Sợi (L)",
        "updatedDate": "2025-11-02T01:34:08.855Z"
      },
      {
        "_id": "690686002969ebf6f2e2bdfd",
        "itemNo": "65000393",
        "__v": 0,
        "basicItemNo": "65000393",
        "basicMatl": "65000393",
        "id": "94a3906d-9ddd-41d4-94dc-620b678e3ada",
        "itemGroup": null,
        "itemGroupNo": null,
        "itemType": null,
        "mch2": "144",
        "mch3": "14403",
        "mch4": "1440302",
        "mch5": "144030201",
        "mch6": "",
        "mediaItems": [
          {
            "id": "0b599ad4-39a6-4ce6-801e-19ce44389233",
            "type": "image",
            "mediaUrl": "https://s3-hcmc02.higiocloud.vn/images/2025/02/remove-bg-ai_1738652175268-20250205020117.png"
          }
        ],
        "mediaUrl": "https://s3-hcmc02.higiocloud.vn/images/2025/02/remove-bg-ai_1738652175268-20250205020117.png",
        "name": "Trà Sữa Ô Long Lài Thạch Konjac (L)",
        "price": 65000,
        "salePrice": 65000,
        "seoName": "tra-sua-o-long-lai-thach-konjac-l--s65000393",
        "shortDesc": "<p><span style=\"background-color: rgb(255, 255, 255); color: rgb(8, 28, 54);\">Pomêly - Ô Long Lài</span></p>",
        "size": "L",
        "sizes": [
          {
            "id": "6d0d8504-0cdb-4638-b827-97bec86d8613",
            "itemNo": "65000392",
            "mediaUrl": "https://s3-hcmc02.higiocloud.vn/images/2025/02/remove-bg-ai_1738652175268-20250205020117.png",
            "name": "Trà Sữa Ô Long Lài Thạch Konjac (M)",
            "baseSize": false,
            "size": "M",
            "addSalePrice": -11000
          },
          {
            "id": "94a3906d-9ddd-41d4-94dc-620b678e3ada",
            "itemNo": "65000393",
            "mediaUrl": "https://s3-hcmc02.higiocloud.vn/images/2025/02/remove-bg-ai_1738652175268-20250205020117.png",
            "name": "Trà Sữa Ô Long Lài Thạch Konjac (L)",
            "baseSize": true,
            "size": "L",
            "addSalePrice": 0
          }
        ],
        "subName": "Trà Sữa Ô Long Lài Thạch Konjac (L)",
        "updatedDate": "2025-11-02T01:34:09.653Z"
      },
      {
        "_id": "690686002969ebf6f2e2bdfe",
        "itemNo": "65000384",
        "__v": 0,
        "basicItemNo": "65000385",
        "basicMatl": "65000385",
        "id": "f20be69e-f057-4af8-8141-dbc02794ac61",
        "itemGroup": null,
        "itemGroupNo": null,
        "itemType": null,
        "mch2": "144",
        "mch3": "14403",
        "mch4": "1440302",
        "mch5": "144030201",
        "mch6": "",
        "mediaItems": [
          {
            "id": "e2c4bb7d-5ee9-446f-8efa-8d373aea1718",
            "type": "image",
            "mediaUrl": "https://s3-hcmc02.higiocloud.vn/images/2025/02/tra-ba-tuoc-luu-do-20250205072548.png"
          }
        ],
        "mediaUrl": "https://s3-hcmc02.higiocloud.vn/images/2025/02/tra-ba-tuoc-luu-do-20250205072548.png",
        "name": "Trà Bá Tước Lựu Đỏ (M)",
        "price": 55000,
        "salePrice": 55000,
        "seoName": "tra-ba-tuoc-luu-do-m--s65000384",
        "size": "M",
        "sizes": [
          {
            "id": "26d4cd53-e22f-4034-b7a8-5bdf5370fd3b",
            "itemNo": "65000385",
            "mediaUrl": "https://s3-hcmc02.higiocloud.vn/images/2025/02/tra-ba-tuoc-luu-do-20250205072548.png",
            "name": "Trà Bá Tước Lựu Đỏ (L)",
            "baseSize": true,
            "size": "L",
            "addSalePrice": 5000
          },
          {
            "id": "f20be69e-f057-4af8-8141-dbc02794ac61",
            "itemNo": "65000384",
            "mediaUrl": "https://s3-hcmc02.higiocloud.vn/images/2025/02/tra-ba-tuoc-luu-do-20250205072548.png",
            "name": "Trà Bá Tước Lựu Đỏ (M)",
            "baseSize": false,
            "size": "M",
            "addSalePrice": 0
          }
        ],
        "subName": "Trà Bá Tước Lựu Đỏ (M)",
        "updatedDate": "2025-11-02T01:34:09.475Z"
      }
    ]
  },
  "paging": {
    "totalCount": 192,
    "pageSize": 10,
    "totalPages": 20,
    "pageNumber": 18,
    "pagingCounter": 171,
    "hasPrevPage": true,
    "hasNextPage": true,
    "prev": 17,
    "next": 19
  }
}